%YAML 1.1
%TAG !u! tag:unity3d.com,2011:
--- !u!74 &7400000
AnimationClip:
  m_ObjectHideFlags: 0
  m_PrefabParentObject: {fileID: 0}
  m_PrefabInternal: {fileID: 0}
  m_Name: Bomb
  serializedVersion: 6
  m_Legacy: 0
  m_Compressed: 0
  m_UseHighQualityCurve: 1
  m_RotationCurves: []
  m_CompressedRotationCurves: []
  m_EulerCurves: []
  m_PositionCurves: []
  m_ScaleCurves:
  - curve:
      serializedVersion: 2
      m_Curve:
      - serializedVersion: 2
        time: 0
        value: {x: 0.75, y: 0.75, z: 1}
        inSlope: {x: 0, y: 0, z: 0}
        outSlope: {x: 0, y: 0, z: 0}
        tangentMode: 0
      m_PreInfinity: 2
      m_PostInfinity: 2
      m_RotationOrder: 4
    path: 
  m_FloatCurves:
  - curve:
      serializedVersion: 2
      m_Curve:
      - serializedVersion: 2
        time: 0
        value: 2.2196045
        inSlope: 0
        outSlope: 0
        tangentMode: 136
      - serializedVersion: 2
        time: 0.1
        value: 3.2748184
        inSlope: 7.646856
        outSlope: 7.646856
        tangentMode: 136
      - serializedVersion: 2
        time: 0.26666668
        value: 4.258766
        inSlope: 2.437026
        outSlope: 2.437026
        tangentMode: 136
      - serializedVersion: 2
        time: 0.38333333
        value: 4.431389
        inSlope: 0
        outSlope: 0
        tangentMode: 136
      - serializedVersion: 2
        time: 0.53333336
        value: 3.6545792
        inSlope: -5.869232
        outSlope: -5.869232
        tangentMode: 136
      - serializedVersion: 2
        time: 0.6333333
        value: 2.9640808
        inSlope: -5.736449
        outSlope: -5.736449
        tangentMode: 136
      - serializedVersion: 2
        time: 0.75
        value: 2.4116821
        inSlope: -11.047975
        outSlope: -11.047975
        tangentMode: 136
      - serializedVersion: 2
        time: 0.8333333
        value: 0.68544006
        inSlope: 0
        outSlope: 0
        tangentMode: 136
      m_PreInfinity: 2
      m_PostInfinity: 2
      m_RotationOrder: 4
    attribute: m_Radius
    path: 'Blast '
    classID: 58
    script: {fileID: 0}
  m_PPtrCurves:
  - curve:
    - time: 0
      value: {fileID: 21300000, guid: a7ecae0c7f895074e8527d19dbdc1849, type: 3}
    - time: 0.1
      value: {fileID: 21300002, guid: a7ecae0c7f895074e8527d19dbdc1849, type: 3}
    - time: 0.26666668
      value: {fileID: 21300004, guid: a7ecae0c7f895074e8527d19dbdc1849, type: 3}
    - time: 0.36666667
      value: {fileID: 21300006, guid: a7ecae0c7f895074e8527d19dbdc1849, type: 3}
    - time: 0.53333336
      value: {fileID: 21300008, guid: a7ecae0c7f895074e8527d19dbdc1849, type: 3}
    - time: 0.6333333
      value: {fileID: 21300010, guid: a7ecae0c7f895074e8527d19dbdc1849, type: 3}
    - time: 0.75
      value: {fileID: 21300012, guid: a7ecae0c7f895074e8527d19dbdc1849, type: 3}
    - time: 0.8333333
      value: {fileID: 21300014, guid: a7ecae0c7f895074e8527d19dbdc1849, type: 3}
    attribute: m_Sprite
    path: 
    classID: 212
    script: {fileID: 0}
  m_SampleRate: 60
  m_WrapMode: 0
  m_Bounds:
    m_Center: {x: 0, y: 0, z: 0}
    m_Extent: {x: 0, y: 0, z: 0}
  m_ClipBindingConstant:
    genericBindings:
    - path: 176179933
      attribute: 1984117138
      script: {fileID: 0}
      classID: 58
      customType: 0
      isPPtrCurve: 0
    - path: 0
      attribute: 0
      script: {fileID: 0}
      classID: 212
      customType: 23
      isPPtrCurve: 1
    - path: 0
      attribute: 3
      script: {fileID: 0}
      classID: 4
      customType: 0
      isPPtrCurve: 0
    pptrCurveMapping:
    - {fileID: 21300000, guid: a7ecae0c7f895074e8527d19dbdc1849, type: 3}
    - {fileID: 21300002, guid: a7ecae0c7f895074e8527d19dbdc1849, type: 3}
    - {fileID: 21300004, guid: a7ecae0c7f895074e8527d19dbdc1849, type: 3}
    - {fileID: 21300006, guid: a7ecae0c7f895074e8527d19dbdc1849, type: 3}
    - {fileID: 21300008, guid: a7ecae0c7f895074e8527d19dbdc1849, type: 3}
    - {fileID: 21300010, guid: a7ecae0c7f895074e8527d19dbdc1849, type: 3}
    - {fileID: 21300012, guid: a7ecae0c7f895074e8527d19dbdc1849, type: 3}
    - {fileID: 21300014, guid: a7ecae0c7f895074e8527d19dbdc1849, type: 3}
  m_AnimationClipSettings:
    serializedVersion: 2
    m_AdditiveReferencePoseClip: {fileID: 0}
    m_AdditiveReferencePoseTime: 0
    m_StartTime: 0
    m_StopTime: 0.84999996
    m_OrientationOffsetY: 0
    m_Level: 0
    m_CycleOffset: 0
    m_HasAdditiveReferencePose: 0
    m_LoopTime: 0
    m_LoopBlend: 0
    m_LoopBlendOrientation: 0
    m_LoopBlendPositionY: 0
    m_LoopBlendPositionXZ: 0
    m_KeepOriginalOrientation: 0
    m_KeepOriginalPositionY: 1
    m_KeepOriginalPositionXZ: 0
    m_HeightFromFeet: 0
    m_Mirror: 0
  m_EditorCurves:
  - curve:
      serializedVersion: 2
      m_Curve:
      - serializedVersion: 2
        time: 0
        value: 2.2196045
        inSlope: 0
        outSlope: 0
        tangentMode: 136
      - serializedVersion: 2
        time: 0.1
        value: 3.2748184
        inSlope: 7.646856
        outSlope: 7.646856
        tangentMode: 136
      - serializedVersion: 2
        time: 0.26666668
        value: 4.258766
        inSlope: 2.437026
        outSlope: 2.437026
        tangentMode: 136
      - serializedVersion: 2
        time: 0.38333333
        value: 4.431389
        inSlope: 0
        outSlope: 0
        tangentMode: 136
      - serializedVersion: 2
        time: 0.53333336
        value: 3.6545792
        inSlope: -5.869232
        outSlope: -5.869232
        tangentMode: 136
      - serializedVersion: 2
        time: 0.6333333
        value: 2.9640808
        inSlope: -5.736449
        outSlope: -5.736449
        tangentMode: 136
      - serializedVersion: 2
        time: 0.75
        value: 2.4116821
        inSlope: -11.047975
        outSlope: -11.047975
        tangentMode: 136
      - serializedVersion: 2
        time: 0.8333333
        value: 0.68544006
        inSlope: 0
        outSlope: 0
        tangentMode: 136
      m_PreInfinity: 2
      m_PostInfinity: 2
      m_RotationOrder: 4
    attribute: m_Radius
    path: 'Blast '
    classID: 58
    script: {fileID: 0}
  - curve:
      serializedVersion: 2
      m_Curve:
      - serializedVersion: 2
        time: 0
        value: 0.75
        inSlope: 0
        outSlope: 0
        tangentMode: 136
      m_PreInfinity: 2
      m_PostInfinity: 2
      m_RotationOrder: 4
    attribute: m_LocalScale.x
    path: 
    classID: 4
    script: {fileID: 0}
  - curve:
      serializedVersion: 2
      m_Curve:
      - serializedVersion: 2
        time: 0
        value: 0.75
        inSlope: 0
        outSlope: 0
        tangentMode: 136
      m_PreInfinity: 2
      m_PostInfinity: 2
      m_RotationOrder: 4
    attribute: m_LocalScale.y
    path: 
    classID: 4
    script: {fileID: 0}
  - curve:
      serializedVersion: 2
      m_Curve:
      - serializedVersion: 2
        time: 0
        value: 1
        inSlope: 0
        outSlope: 0
        tangentMode: 136
      m_PreInfinity: 2
      m_PostInfinity: 2
      m_RotationOrder: 4
    attribute: m_LocalScale.z
    path: 
    classID: 4
    script: {fileID: 0}
  m_EulerEditorCurves: []
  m_HasGenericRootTransform: 0
  m_HasMotionFloatCurves: 0
  m_GenerateMotionCurves: 0
  m_IsEmpty: 0
  m_Events: []
