arm.L = 522 383 148 253
arm.R = 685 383 129 174
closed_book_hand.L = 270 587 162 135
elbow.R = 560 651 70 59
feet.L = 254 737 96 100
feet.R = 464 651 81 104
hand.L = 0 479 255 160
hand.R = 365 737 84 70
head = 276 383 231 189
head_glow = 0 654 239 189
scarf.Back = 0 364 261 100
scarf.Front = 0 184 281 165
scarf_glow_front = 0 0 281 169
torso = 296 0 274 368
torso_glow = 585 0 274 368
