arm.L = 1403 530 50 123
arm.R = 1332 566 52 123
ball = 1024 337 293 298
cannon = 0 0 588 288
cannon_destroyed = 0 592 562 270
cannon_hit = 0 303 562 274
elbow.L = 890 783 57 114
elbow.R = 1332 381 57 113
feet.L = 1332 337 73 29
feet.R = 793 872 51 25
hand.L = 1332 509 56 42
hand.R = 793 783 82 74
hand_grab.R = 1404 464 55 51
head = 577 640 201 232
hips = 793 640 198 128
leg.L = 1256 650 52 101
leg.R = 1185 774 50 101
lower_leg.L = 1420 337 56 112
lower_leg.R = 1185 650 56 109
stationary = 577 303 432 322
stationary_destroyed = 603 0 434 277
stationary_hit = 1052 0 432 322
torso = 1006 650 164 201
