arm.L = 641 243 50 123
arm.R = 574 205 52 123
bomb = 255 0 232 344
elbow.L = 183 317 57 114
elbow.R = 502 122 57 113
feet.L = 0 406 73 29
feet.R = 255 416 51 25
hand.L = 255 359 56 42
hand.R = 0 317 82 74
hand_grab.R = 326 359 55 51
hips = 0 174 198 128
leg.L = 663 127 52 101
leg.R = 573 343 50 101
lower_leg.L = 663 0 56 112
lower_leg.R = 502 250 56 109
protector.L = 97 317 71 107
protector.R = 502 0 67 107
spine = 584 0 64 190
torso = 0 0 240 159
