%YAML 1.1
%TAG !u! tag:unity3d.com,2011:
--- !u!1045 &1
EditorBuildSettings:
  m_ObjectHideFlags: 0
  serializedVersion: 2
  m_Scenes:
  - enabled: 1
    path: Assets/Main Menu.unity
  - enabled: 1
    path: Assets/Infinite Runner.unity
  - enabled: 1
    path: Assets/Level 1.unity
  - enabled: 1
    path: Assets/Level 2.unity
  - enabled: 1
    path: Assets/WaveLevel.unity
  - enabled: 1
    path: Assets/Level 3.unity
