%YAML 1.1
%TAG !u! tag:unity3d.com,2011:
--- !u!74 &7400000
AnimationClip:
  m_ObjectHideFlags: 0
  m_PrefabParentObject: {fileID: 0}
  m_PrefabInternal: {fileID: 0}
  m_Name: attack
  serializedVersion: 6
  m_Legacy: 0
  m_Compressed: 0
  m_UseHighQualityCurve: 1
  m_RotationCurves: []
  m_CompressedRotationCurves: []
  m_EulerCurves: []
  m_PositionCurves: []
  m_ScaleCurves: []
  m_FloatCurves:
  - curve:
      serializedVersion: 2
      m_Curve:
      - serializedVersion: 2
        time: 0
        value: -0.10090065
        inSlope: 0
        outSlope: 0
        tangentMode: 136
      - serializedVersion: 2
        time: 0.45
        value: 0.05661583
        inSlope: 1.2601318
        outSlope: 1.2601318
        tangentMode: 136
      - serializedVersion: 2
        time: 0.5
        value: 0.82554436
        inSlope: 0
        outSlope: 0
        tangentMode: 136
      - serializedVersion: 2
        time: 0.53333336
        value: 0.8250796
        inSlope: -0.0016647312
        outSlope: -0.0016647312
        tangentMode: 136
      - serializedVersion: 2
        time: 1.6166667
        value: 0.4311161
        inSlope: -0.6057928
        outSlope: -0.6057928
        tangentMode: 136
      - serializedVersion: 2
        time: 1.6833333
        value: 0.12841797
        inSlope: 0
        outSlope: 0
        tangentMode: 136
      m_PreInfinity: 2
      m_PostInfinity: 2
      m_RotationOrder: 4
    attribute: m_Offset.y
    path: 
    classID: 61
    script: {fileID: 0}
  - curve:
      serializedVersion: 2
      m_Curve:
      - serializedVersion: 2
        time: 0
        value: 5.2818046
        inSlope: 0
        outSlope: 0
        tangentMode: 136
      - serializedVersion: 2
        time: 0.45
        value: 4.966777
        inSlope: -2.5202217
        outSlope: -2.5202217
        tangentMode: 136
      - serializedVersion: 2
        time: 0.5
        value: 3.4289138
        inSlope: 0
        outSlope: 0
        tangentMode: 136
      - serializedVersion: 2
        time: 0.53333336
        value: 3.4298432
        inSlope: 0.0033290356
        outSlope: 0.0033290356
        tangentMode: 136
      - serializedVersion: 2
        time: 1.6166667
        value: 4.2177672
        inSlope: 1.2115852
        outSlope: 1.2115852
        tangentMode: 136
      - serializedVersion: 2
        time: 1.6833333
        value: 4.823166
        inSlope: 0
        outSlope: 0
        tangentMode: 136
      m_PreInfinity: 2
      m_PostInfinity: 2
      m_RotationOrder: 4
    attribute: m_Size.y
    path: 
    classID: 61
    script: {fileID: 0}
  - curve:
      serializedVersion: 2
      m_Curve:
      - serializedVersion: 2
        time: 0.5
        value: 0
        inSlope: 0
        outSlope: 0
        tangentMode: 136
      - serializedVersion: 2
        time: 0.51666665
        value: 0
        inSlope: 0
        outSlope: 0
        tangentMode: 136
      - serializedVersion: 2
        time: 0.53333336
        value: 0
        inSlope: 0
        outSlope: 0
        tangentMode: 136
      m_PreInfinity: 2
      m_PostInfinity: 2
      m_RotationOrder: 4
    attribute: m_Offset.x
    path: 
    classID: 61
    script: {fileID: 0}
  - curve:
      serializedVersion: 2
      m_Curve:
      - serializedVersion: 2
        time: 0
        value: 2.71
        inSlope: 0
        outSlope: 0
        tangentMode: 136
      - serializedVersion: 2
        time: 0.51666665
        value: 2.71
        inSlope: 0
        outSlope: 0
        tangentMode: 136
      - serializedVersion: 2
        time: 0.53333336
        value: 2.71
        inSlope: 0
        outSlope: 0
        tangentMode: 136
      m_PreInfinity: 2
      m_PostInfinity: 2
      m_RotationOrder: 4
    attribute: m_Size.x
    path: 
    classID: 61
    script: {fileID: 0}
  - curve:
      serializedVersion: 2
      m_Curve:
      - serializedVersion: 2
        time: 0
        value: 1
        inSlope: Infinity
        outSlope: Infinity
        tangentMode: 103
      - serializedVersion: 2
        time: 0.36666667
        value: 1
        inSlope: Infinity
        outSlope: Infinity
        tangentMode: 103
      - serializedVersion: 2
        time: 0.51666665
        value: 1
        inSlope: Infinity
        outSlope: Infinity
        tangentMode: 103
      - serializedVersion: 2
        time: 0.56666666
        value: 1
        inSlope: Infinity
        outSlope: Infinity
        tangentMode: 103
      - serializedVersion: 2
        time: 1.5833334
        value: 1
        inSlope: Infinity
        outSlope: Infinity
        tangentMode: 103
      - serializedVersion: 2
        time: 1.6666666
        value: 1
        inSlope: Infinity
        outSlope: Infinity
        tangentMode: 103
      - serializedVersion: 2
        time: 1.6833333
        value: 1
        inSlope: Infinity
        outSlope: Infinity
        tangentMode: 103
      m_PreInfinity: 2
      m_PostInfinity: 2
      m_RotationOrder: 4
    attribute: m_Enabled
    path: 
    classID: 61
    script: {fileID: 0}
  m_PPtrCurves:
  - curve:
    - time: 0
      value: {fileID: 21300000, guid: 262072e48dddede49adb6b0191103f02, type: 3}
    - time: 0.083333336
      value: {fileID: 21300002, guid: 262072e48dddede49adb6b0191103f02, type: 3}
    - time: 0.13333334
      value: {fileID: 21300004, guid: 262072e48dddede49adb6b0191103f02, type: 3}
    - time: 0.21666667
      value: {fileID: 21300006, guid: 262072e48dddede49adb6b0191103f02, type: 3}
    - time: 0.28333333
      value: {fileID: 21300008, guid: 262072e48dddede49adb6b0191103f02, type: 3}
    - time: 0.36666667
      value: {fileID: 21300010, guid: 262072e48dddede49adb6b0191103f02, type: 3}
    - time: 0.45
      value: {fileID: 21300012, guid: 262072e48dddede49adb6b0191103f02, type: 3}
    - time: 0.5
      value: {fileID: 21300014, guid: 262072e48dddede49adb6b0191103f02, type: 3}
    - time: 0.5833333
      value: {fileID: 21300016, guid: 262072e48dddede49adb6b0191103f02, type: 3}
    - time: 0.6333333
      value: {fileID: 21300018, guid: 262072e48dddede49adb6b0191103f02, type: 3}
    - time: 0.71666664
      value: {fileID: 21300020, guid: 262072e48dddede49adb6b0191103f02, type: 3}
    - time: 0.8
      value: {fileID: 21300022, guid: 262072e48dddede49adb6b0191103f02, type: 3}
    - time: 0.8666667
      value: {fileID: 21300024, guid: 262072e48dddede49adb6b0191103f02, type: 3}
    - time: 0.95
      value: {fileID: 21300026, guid: 262072e48dddede49adb6b0191103f02, type: 3}
    - time: 1.0333333
      value: {fileID: 21300028, guid: 262072e48dddede49adb6b0191103f02, type: 3}
    - time: 1.0833334
      value: {fileID: 21300030, guid: 262072e48dddede49adb6b0191103f02, type: 3}
    - time: 1.1666666
      value: {fileID: 21300032, guid: 262072e48dddede49adb6b0191103f02, type: 3}
    - time: 1.2166667
      value: {fileID: 21300034, guid: 262072e48dddede49adb6b0191103f02, type: 3}
    - time: 1.3
      value: {fileID: 21300036, guid: 262072e48dddede49adb6b0191103f02, type: 3}
    - time: 1.3833333
      value: {fileID: 21300038, guid: 262072e48dddede49adb6b0191103f02, type: 3}
    - time: 1.45
      value: {fileID: 21300040, guid: 262072e48dddede49adb6b0191103f02, type: 3}
    - time: 1.5333333
      value: {fileID: 21300042, guid: 262072e48dddede49adb6b0191103f02, type: 3}
    - time: 1.5833334
      value: {fileID: 21300044, guid: 262072e48dddede49adb6b0191103f02, type: 3}
    - time: 1.6666666
      value: {fileID: 21300046, guid: 262072e48dddede49adb6b0191103f02, type: 3}
    attribute: m_Sprite
    path: 
    classID: 212
    script: {fileID: 0}
  m_SampleRate: 60
  m_WrapMode: 0
  m_Bounds:
    m_Center: {x: 0, y: 0, z: 0}
    m_Extent: {x: 0, y: 0, z: 0}
  m_ClipBindingConstant:
    genericBindings:
    - path: 0
      attribute: 1872933342
      script: {fileID: 0}
      classID: 61
      customType: 0
      isPPtrCurve: 0
    - path: 0
      attribute: 2368279999
      script: {fileID: 0}
      classID: 61
      customType: 0
      isPPtrCurve: 0
    - path: 0
      attribute: 3305885265
      script: {fileID: 0}
      classID: 61
      customType: 0
      isPPtrCurve: 0
    - path: 0
      attribute: 0
      script: {fileID: 0}
      classID: 212
      customType: 23
      isPPtrCurve: 1
    - path: 0
      attribute: 413499720
      script: {fileID: 0}
      classID: 61
      customType: 0
      isPPtrCurve: 0
    - path: 0
      attribute: 4197328169
      script: {fileID: 0}
      classID: 61
      customType: 0
      isPPtrCurve: 0
    pptrCurveMapping:
    - {fileID: 21300000, guid: 262072e48dddede49adb6b0191103f02, type: 3}
    - {fileID: 21300002, guid: 262072e48dddede49adb6b0191103f02, type: 3}
    - {fileID: 21300004, guid: 262072e48dddede49adb6b0191103f02, type: 3}
    - {fileID: 21300006, guid: 262072e48dddede49adb6b0191103f02, type: 3}
    - {fileID: 21300008, guid: 262072e48dddede49adb6b0191103f02, type: 3}
    - {fileID: 21300010, guid: 262072e48dddede49adb6b0191103f02, type: 3}
    - {fileID: 21300012, guid: 262072e48dddede49adb6b0191103f02, type: 3}
    - {fileID: 21300014, guid: 262072e48dddede49adb6b0191103f02, type: 3}
    - {fileID: 21300016, guid: 262072e48dddede49adb6b0191103f02, type: 3}
    - {fileID: 21300018, guid: 262072e48dddede49adb6b0191103f02, type: 3}
    - {fileID: 21300020, guid: 262072e48dddede49adb6b0191103f02, type: 3}
    - {fileID: 21300022, guid: 262072e48dddede49adb6b0191103f02, type: 3}
    - {fileID: 21300024, guid: 262072e48dddede49adb6b0191103f02, type: 3}
    - {fileID: 21300026, guid: 262072e48dddede49adb6b0191103f02, type: 3}
    - {fileID: 21300028, guid: 262072e48dddede49adb6b0191103f02, type: 3}
    - {fileID: 21300030, guid: 262072e48dddede49adb6b0191103f02, type: 3}
    - {fileID: 21300032, guid: 262072e48dddede49adb6b0191103f02, type: 3}
    - {fileID: 21300034, guid: 262072e48dddede49adb6b0191103f02, type: 3}
    - {fileID: 21300036, guid: 262072e48dddede49adb6b0191103f02, type: 3}
    - {fileID: 21300038, guid: 262072e48dddede49adb6b0191103f02, type: 3}
    - {fileID: 21300040, guid: 262072e48dddede49adb6b0191103f02, type: 3}
    - {fileID: 21300042, guid: 262072e48dddede49adb6b0191103f02, type: 3}
    - {fileID: 21300044, guid: 262072e48dddede49adb6b0191103f02, type: 3}
    - {fileID: 21300046, guid: 262072e48dddede49adb6b0191103f02, type: 3}
  m_AnimationClipSettings:
    serializedVersion: 2
    m_AdditiveReferencePoseClip: {fileID: 0}
    m_AdditiveReferencePoseTime: 0
    m_StartTime: 0
    m_StopTime: 1.6833333
    m_OrientationOffsetY: 0
    m_Level: 0
    m_CycleOffset: 0
    m_HasAdditiveReferencePose: 0
    m_LoopTime: 0
    m_LoopBlend: 0
    m_LoopBlendOrientation: 0
    m_LoopBlendPositionY: 0
    m_LoopBlendPositionXZ: 0
    m_KeepOriginalOrientation: 0
    m_KeepOriginalPositionY: 1
    m_KeepOriginalPositionXZ: 0
    m_HeightFromFeet: 0
    m_Mirror: 0
  m_EditorCurves:
  - curve:
      serializedVersion: 2
      m_Curve:
      - serializedVersion: 2
        time: 0
        value: -0.10090065
        inSlope: 0
        outSlope: 0
        tangentMode: 136
      - serializedVersion: 2
        time: 0.45
        value: 0.05661583
        inSlope: 1.2601318
        outSlope: 1.2601318
        tangentMode: 136
      - serializedVersion: 2
        time: 0.5
        value: 0.82554436
        inSlope: 0
        outSlope: 0
        tangentMode: 136
      - serializedVersion: 2
        time: 0.53333336
        value: 0.8250796
        inSlope: -0.0016647312
        outSlope: -0.0016647312
        tangentMode: 136
      - serializedVersion: 2
        time: 1.6166667
        value: 0.4311161
        inSlope: -0.6057928
        outSlope: -0.6057928
        tangentMode: 136
      - serializedVersion: 2
        time: 1.6833333
        value: 0.12841797
        inSlope: 0
        outSlope: 0
        tangentMode: 136
      m_PreInfinity: 2
      m_PostInfinity: 2
      m_RotationOrder: 4
    attribute: m_Offset.y
    path: 
    classID: 61
    script: {fileID: 0}
  - curve:
      serializedVersion: 2
      m_Curve:
      - serializedVersion: 2
        time: 0
        value: 5.2818046
        inSlope: 0
        outSlope: 0
        tangentMode: 136
      - serializedVersion: 2
        time: 0.45
        value: 4.966777
        inSlope: -2.5202217
        outSlope: -2.5202217
        tangentMode: 136
      - serializedVersion: 2
        time: 0.5
        value: 3.4289138
        inSlope: 0
        outSlope: 0
        tangentMode: 136
      - serializedVersion: 2
        time: 0.53333336
        value: 3.4298432
        inSlope: 0.0033290356
        outSlope: 0.0033290356
        tangentMode: 136
      - serializedVersion: 2
        time: 1.6166667
        value: 4.2177672
        inSlope: 1.2115852
        outSlope: 1.2115852
        tangentMode: 136
      - serializedVersion: 2
        time: 1.6833333
        value: 4.823166
        inSlope: 0
        outSlope: 0
        tangentMode: 136
      m_PreInfinity: 2
      m_PostInfinity: 2
      m_RotationOrder: 4
    attribute: m_Size.y
    path: 
    classID: 61
    script: {fileID: 0}
  - curve:
      serializedVersion: 2
      m_Curve:
      - serializedVersion: 2
        time: 0.5
        value: 0
        inSlope: 0
        outSlope: 0
        tangentMode: 136
      - serializedVersion: 2
        time: 0.51666665
        value: 0
        inSlope: 0
        outSlope: 0
        tangentMode: 136
      - serializedVersion: 2
        time: 0.53333336
        value: 0
        inSlope: 0
        outSlope: 0
        tangentMode: 136
      m_PreInfinity: 2
      m_PostInfinity: 2
      m_RotationOrder: 4
    attribute: m_Offset.x
    path: 
    classID: 61
    script: {fileID: 0}
  - curve:
      serializedVersion: 2
      m_Curve:
      - serializedVersion: 2
        time: 0
        value: 2.71
        inSlope: 0
        outSlope: 0
        tangentMode: 136
      - serializedVersion: 2
        time: 0.51666665
        value: 2.71
        inSlope: 0
        outSlope: 0
        tangentMode: 136
      - serializedVersion: 2
        time: 0.53333336
        value: 2.71
        inSlope: 0
        outSlope: 0
        tangentMode: 136
      m_PreInfinity: 2
      m_PostInfinity: 2
      m_RotationOrder: 4
    attribute: m_Size.x
    path: 
    classID: 61
    script: {fileID: 0}
  - curve:
      serializedVersion: 2
      m_Curve:
      - serializedVersion: 2
        time: 0
        value: 1
        inSlope: Infinity
        outSlope: Infinity
        tangentMode: 103
      - serializedVersion: 2
        time: 0.36666667
        value: 1
        inSlope: Infinity
        outSlope: Infinity
        tangentMode: 103
      - serializedVersion: 2
        time: 0.51666665
        value: 1
        inSlope: Infinity
        outSlope: Infinity
        tangentMode: 103
      - serializedVersion: 2
        time: 0.56666666
        value: 1
        inSlope: Infinity
        outSlope: Infinity
        tangentMode: 103
      - serializedVersion: 2
        time: 1.5833334
        value: 1
        inSlope: Infinity
        outSlope: Infinity
        tangentMode: 103
      - serializedVersion: 2
        time: 1.6666666
        value: 1
        inSlope: Infinity
        outSlope: Infinity
        tangentMode: 103
      - serializedVersion: 2
        time: 1.6833333
        value: 1
        inSlope: Infinity
        outSlope: Infinity
        tangentMode: 103
      m_PreInfinity: 2
      m_PostInfinity: 2
      m_RotationOrder: 4
    attribute: m_Enabled
    path: 
    classID: 61
    script: {fileID: 0}
  m_EulerEditorCurves: []
  m_HasGenericRootTransform: 0
  m_HasMotionFloatCurves: 0
  m_GenerateMotionCurves: 0
  m_IsEmpty: 0
  m_Events: []
