arm.L = 1066 1523 111 313
arm.R = 1226 1309 123 216
belt = 457 853 426 160
cape = 0 0 615 813
crown = 0 1485 410 371
elbow.L = 1085 1240 126 268
elbow.R = 1574 0 239 304
feet.L = 425 1485 227 138
feet.R = 1102 752 151 84
hand.L = 882 1240 188 163
hand.R = 1270 752 204 214
hand_grab.R = 667 1467 181 139
head = 630 0 457 838
head_dead = 0 828 442 642
hips = 1102 470 401 267
leg.L = 425 1638 218 205
leg.R = 667 1621 165 221
lower_leg.L = 882 1418 169 306
lower_leg.R = 1270 981 180 313
piece_of_cloth_front = 898 853 357 372
shoulder_armor = 457 1028 410 424
torso = 1102 0 457 455
weapon = 1518 470 328 1146
