elbow = 0 257 253 504
finger_1_1 = 368 264 85 289
finger_1_2 = 652 264 68 156
finger_1_3 = 730 435 45 86
finger_1_4 = 366 139 44 72
finger_2_1 = 268 257 85 290
finger_2_2 = 774 0 76 183
finger_2_3 = 353 716 64 102
finger_2_4 = 499 634 44 72
finger_3_1 = 566 264 71 242
finger_3_2 = 268 562 70 180
finger_3_3 = 468 504 66 106
finger_3_4 = 268 757 49 68
finger_4_1 = 468 264 83 225
finger_4_2 = 353 568 67 133
finger_4_3 = 435 708 47 91
finger_4_4 = 435 625 49 68
palm = 425 0 334 249
portal = 0 139 351 103
portal_front = 0 0 410 124
thumb_0 = 774 198 66 211
thumb_1 = 652 435 63 139
thumb_2 = 549 521 51 98
